DATA-413/613 Homework: Tidy Text 1
…
# A tibble: 4 × 2
  gutenberg_author_id author                                      
                <int> <chr>                                       
1                 226 Du Bois, W. E. B. (William Edward Burghardt)
2                7579 Du Boisgobey, Fortuné                       
3               34882 Du Bois, Louis                              
4               44429 Du Bois, Gaylord                            

Find and show their works to show the gutenberg_id - you can show other works as well.

gutenberg_works() |>
  filter(gutenberg_author_id %in% c(88, 226))|>
  select(gutenberg_id, title, gutenberg_author_id, author)

# A tibble: 54 × 4
   gutenberg_id title                                 gutenberg_author_id author
          <int> <chr>                                               <int> <chr> 
 1          140 "The Jungle"                                           88 Sincl…
 2          408 "The Souls of Black Folk"                             226 Du Bo…
 3         1157 "Damaged Goods\r\nThe great play \"L…                  88 Sincl…
 4         1558 "The Profits of Religion: An Essay i…                  88 Sincl…
 5         3301 "The Naturewoman"                                      88 Sincl…
 6         3302 "The Second-Story Man"                                 88 Sincl…
 7         3303 "Prince Hagen"                                         88 Sincl…
 8         3304 "The Machine"                                          88 Sincl…
 9         4923 "King Midas: a Romance"                                88 Sincl…
10         5421 "The Metropolis"                                       88 Sincl…
# ℹ 44 more rows
…
